[{
"page": 1,
"limit": 10,
"pages": 200,
"total": 2000,
"_links":{
"self":{
"href": "/app_dev.php/api/v1/products?limit=10&page=1&sorting%5Bid%5D=asc"
},
"first":{
"href": "/app_dev.php/api/v1/products?limit=10&page=1&sorting%5Bid%5D=asc"
},
"last":{
"href": "/app_dev.php/api/v1/products?limit=10&page=200&sorting%5Bid%5D=asc"
},
"next":{
"href": "/app_dev.php/api/v1/products?limit=10&page=2&sorting%5Bid%5D=asc"
}
},
"_embedded":{
"items":[
{
"id": 1,
"title": "Brand new bmw x1",
"price": 50020,
"created_at": "2015-05-10T15:59:08-0400",
"_links":{
"self":{
"href": "/app_dev.php/api/v1/products/1"
},
"delete":{
"href": "/app_dev.php/api/v1/products/1"
}
}
},
{
"id": 2,
"title": "Brand new bmw x2",
"price": 50040,
"created_at": "2015-05-10T15:59:08-0400",
"_links":{
"self":{
"href": "/app_dev.php/api/v1/products/2"
},
"delete":{
"href": "/app_dev.php/api/v1/products/2"
}
}
},
{
"id": 3,
"title": "Brand new bmw x3",
"price": 50060,
"created_at": "2015-05-10T15:59:08-0400",
"_links":{
"self":{
"href": "/app_dev.php/api/v1/products/3"
},
"delete":{
"href": "/app_dev.php/api/v1/products/3"
}
}
},
{
"id": 4,
"title": "Brand new bmw x4",
"price": 50080,
"created_at": "2015-05-10T15:59:08-0400",
"_links":{
"self":{
"href": "/app_dev.php/api/v1/products/4"
},
"delete":{
"href": "/app_dev.php/api/v1/products/4"
}
}
},
{
"id": 5,
"title": "Brand new bmw x5",
"price": 50100,
"created_at": "2015-05-10T15:59:08-0400",
"_links":{
"self":{
"href": "/app_dev.php/api/v1/products/5"
},
"delete":{
"href": "/app_dev.php/api/v1/products/5"
}
}
},
{
"id": 6,
"title": "Brand new bmw x6",
"price": 50120,
"created_at": "2015-05-10T15:59:08-0400",
"_links":{"self":{"href": "/app_dev.php/api/v1/products/6" }, "delete":{"href": "/app_dev.php/api/v1/products/6"…}
},
{
"id": 7,
"title": "Brand new bmw x7",
"price": 50140,
"created_at": "2015-05-10T15:59:08-0400",
"_links":{
"self":{
"href": "/app_dev.php/api/v1/products/7"
},
"delete":{
"href": "/app_dev.php/api/v1/products/7"
}
}
},
{
"id": 8,
"title": "Brand new bmw x8",
"price": 50160,
"created_at": "2015-05-10T15:59:08-0400",
"_links":{
"self":{
"href": "/app_dev.php/api/v1/products/8"
},
"delete":{
"href": "/app_dev.php/api/v1/products/8"
}
}
},
{
"id": 9,
"title": "Brand new bmw x9",
"price": 50180,
"created_at": "2015-05-10T15:59:08-0400",
"_links":{
"self":{
"href": "/app_dev.php/api/v1/products/9"
},
"delete":{
"href": "/app_dev.php/api/v1/products/9"
}
}
},
{
"id": 10,
"title": "Brand new bmw x10",
"price": 50200,
"created_at": "2015-05-10T15:59:08-0400",
"_links":{
"self":{
"href": "/app_dev.php/api/v1/products/10"
},
"delete":{
"href": "/app_dev.php/api/v1/products/10"
}
}
}
]
}
}]